@startuml

title __JSON's Class Diagram__\n

  namespace fr.cnam.foad.nfa035.badges.fileutils.streaming.media {
    namespace impl {
      namespace json {
        class fr.cnam.foad.nfa035.badges.fileutils.streaming.media.impl.json.JSONWalletFrame {
            {static} - LOG : Logger
            - encodedImageOutput : FileOutputStream
            + JSONWalletFrame()
            + getEncodedImageOutput()
        }
      }
    }
  }
  

  fr.cnam.foad.nfa035.badges.fileutils.streaming.media.impl.json.JSONWalletFrame -up-|> fr.cnam.foad.nfa035.badges.fileutils.streaming.media.impl.WalletFrame


right footer


PlantUML diagram generated by SketchIt! (https://bitbucket.org/pmesmeur/sketch.it)
For more information about this tool, please contact philippe.mesmeur@gmail.com
endfooter

@enduml
